{
  "navbar" : {

    "БУКЕТЫ": "#",
    "РОЗЫ": "#",
    "ГЕРБЕРЫ": "#",
    "ХРИЗАНТЕМЫ": "#",
    "ЛИЛИИ": "#",
    "ЭКЗОТИЧЕСКИЕ ЦВЕТЫ": "#",
    "Букеты на 8 марта": "#",
    "Композиции в виде сердца": "#",
    "Корзины": "#",
    "Игрушки из цветов": "#",
    "Мягкие игрушки": "#",
    "Коробка с цветами": "#"

  }
}